{
  "port":3001,
  "mongoose": {
    "uri": "mongodb://127.0.0.1/osipovsky",
    "options": {
      "server": {
        "socketOptions": {
          "keepAlive": 1
        }
      }
    }
  },
  "session": {
    "secret": "ConteserIsBest",
    "key": "sid",
    "coockie": {
      "path": "/",
      "httpOnly": true,
      "maxAge": null
    }
  }
}
