<?xml version="1.0" encoding="UTF-8"?>
<!DOCTYPE svg PUBLIC "-//W3C//DTD SVG 1.1//EN" "http://www.w3.org/Graphics/SVG/1.1/DTD/svg11.dtd">
<!-- Creator: CorelDRAW X7 -->
<svg xmlns="http://www.w3.org/2000/svg" xml:space="preserve" width="82.9532mm" height="67.3082mm" version="1.1" style="shape-rendering:geometricPrecision; text-rendering:geometricPrecision; image-rendering:optimizeQuality; fill-rule:evenodd; clip-rule:evenodd"
viewBox="0 0 1582 1283"
 xmlns:xlink="http://www.w3.org/1999/xlink">
 <defs>
  <style type="text/css">
   <![CDATA[
    .fil0 {fill:#393185}
   ]]>
  </style>
 </defs>
 <g id="Слой_x0020_1">
  <metadata id="CorelCorpID_0Corel-Layer"/>
  <path class="fil0" d="M1204 989c-118,177 -319,294 -547,294 -357,0 -649,-287 -657,-641 8,-355 300,-642 657,-642 228,0 429,117 547,294l-461 348 461 347zm-22 -137l1 61 -170 -128 170 -128 0 77 260 -197 139 104c-154,116 -231,160 -400,211zm41 -420l0 -61 170 128 -170 128 0 -76 -260 197 -139 -105c153,-116 230,-159 399,-211zm-1163 210c8,321 273,581 597,581 114,0 220,-34 311,-90l-389 -294 0 308 -257 -199 0 -306 0 -306 257 -200 0 309 389 -294c-91,-57 -197,-91 -311,-91 -324,0 -589,260 -597,582z"/>
 </g>
</svg>
